{
  "hotel_booking": {
    "entities": [
      {
        "name": "check_in",
        "reply_when_filled": "您选择的入住日期是[check_in]",
        "reply_when_ask_to_fill": "请选择入住日期"
      },
      {
        "name": "check_out",
        "reply_when_filled": "您选择的退房日期是[check_out]",
        "reply_when_ask_to_fill": "请选择退房日期"
      },
      {
        "name": "number_of_persons",
        "reply_when_filled": "您选择的入住人数是[number_of_persons]",
        "reply_when_ask_to_fill": "请选择入住人数"
      },
      {
        "name": "location",
        "reply_when_filled": "您选择在[location]寻找酒店",
        "reply_when_ask_to_fill": "请选择地点"
      }
    ],
    "reply_when_fully_filled": "正在为您查询，请稍等～"
  },
  "unknown": {
    "entities": [],
    "reply_when_fully_filled": "很抱歉，我听不懂╮(╯▽╰)╭"
  }
}